Zielfunktionswert:         25.00
nanny1 ; client21-341 ; 2017-03-18 ; afternoon ;         1.00
nanny2 ; client25-336 ; 2017-03-19 ; noon ;         1.00
nanny3 ; client22-337 ; 2017-03-20 ; morning ;         1.00
nanny3 ; client5-338 ; 2017-03-21 ; evening ;         1.00
nanny4 ; client5-334 ; 2017-03-21 ; afternoon ;         1.00
